[
  {
    "count": 1221,
    "next": "https://pokeapi.co/api/v2/location-area?offset=20&limit=20",
    "previous": null,
    "results": [
      {
        "name": "canalave-city-area",
        "url": "https://pokeapi.co/api/v2/location-area/1/"
      },
      {
        "name": "eterna-city-area",
        "url": "https://pokeapi.co/api/v2/location-area/2/"
      },
      {
        "name": "pastoria-city-area",
        "url": "https://pokeapi.co/api/v2/location-area/3/"
      },
      {
        "name": "sunyshore-city-area",
        "url": "https://pokeapi.co/api/v2/location-area/4/"
      },
      {
        "name": "sinnoh-pokemon-league-area",
        "url": "https://pokeapi.co/api/v2/location-area/5/"
      },
      {
        "name": "oreburgh-mine-1f",
        "url": "https://pokeapi.co/api/v2/location-area/6/"
      },
      {
        "name": "oreburgh-mine-b1f",
        "url": "https://pokeapi.co/api/v2/location-area/7/"
      },
      {
        "name": "valley-windworks-area",
        "url": "https://pokeapi.co/api/v2/location-area/8/"
      },
      {
        "name": "eterna-forest-area",
        "url": "https://pokeapi.co/api/v2/location-area/9/"
      },
      {
        "name": "fuego-ironworks-area",
        "url": "https://pokeapi.co/api/v2/location-area/10/"
      },
      {
        "name": "mt-coronet-1f-route-207",
        "url": "https://pokeapi.co/api/v2/location-area/11/"
      },
      {
        "name": "mt-coronet-2f",
        "url": "https://pokeapi.co/api/v2/location-area/12/"
      },
      {
        "name": "mt-coronet-3f",
        "url": "https://pokeapi.co/api/v2/location-area/13/"
      },
      {
        "name": "mt-coronet-exterior-snowfall",
        "url": "https://pokeapi.co/api/v2/location-area/14/"
      },
      {
        "name": "mt-coronet-exterior-blizzard",
        "url": "https://pokeapi.co/api/v2/location-area/15/"
      },
      {
        "name": "mt-coronet-4f",
        "url": "https://pokeapi.co/api/v2/location-area/16/"
      },
      {
        "name": "mt-coronet-4f-small-room",
        "url": "https://pokeapi.co/api/v2/location-area/17/"
      },
      {
        "name": "mt-coronet-5f",
        "url": "https://pokeapi.co/api/v2/location-area/18/"
      },
      {
        "name": "mt-coronet-6f",
        "url": "https://pokeapi.co/api/v2/location-area/19/"
      },
      {
        "name": "mt-coronet-1f-from-exterior",
        "url": "https://pokeapi.co/api/v2/location-area/20/"
      }
    ]
  },
  {
    "id": 1,
    "name": "canalave-city-area",
    "game_index": 1,
    "encounter_method_rates": [
      {
        "encounter_method": {
          "name": "old-rod",
          "url": "https://pokeapi.co/api/v2/encounter-method/2/"
        },
        "version_details": [
          {
            "rate": 25,
            "version": {
              "name": "platinum",
              "url": "https://pokeapi.co/api/v2/version/14/"
            }
          }
        ]
      }
    ],
    "location": {
      "name": "canalave-city",
      "url": "https://pokeapi.co/api/v2/location/1/"
    },
    "names": [
      {
        "name": "",
        "language": {
          "name": "en",
          "url": "https://pokeapi.co/api/v2/language/9/"
        }
      }
    ],
    "pokemon_encounters": [
      {
        "pokemon": {
          "name": "tentacool",
          "url": "https://pokeapi.co/api/v2/pokemon/72/"
        },
        "version_details": [
          {
            "version": {
              "name": "diamond",
              "url": "https://pokeapi.co/api/v2/version/12/"
            },
            "max_chance": 60,
            "encounter_details": [
              {
                "min_level": 20,
                "max_level": 30,
                "condition_values": [],
                "chance": 60,
                "method": {
                  "name": "surf",
                  "url": "https://pokeapi.co/api/v2/encounter-method/5/"
                }
              }
            ]
          }
        ]
      }
    ]
  }
]